register/wave.vcd
$date
     Feb 24, 2015       10:39:57
$end

$version
 SystemC 2.3.1-Accellera --- Jan 13 2015 09:29:45
$end

$timescale
     1 ps
$end

$scope module SystemC $end
$var wire   32  aaaaa  din [31:0]  $end
$var wire   32  aaaab  dout [31:0]  $end
$var wire    1  aaaac  enable       $end
$var wire    1  aaaad  rw       $end
$var wire    1  aaaae  clr       $end
$var wire    1  aaaaf  clk       $end
$var wire    5  aaaag  addr [4:0]  $end
$upscope $end
$enddefinitions  $end

$comment
All initial values are dumped below at time 0 sec = 0 timescale units.
$end

$dumpvars
b1 aaaaa
b0 aaaab
1aaaac
0aaaad
0aaaae
1aaaaf
b0 aaaag
$end

#5000
0aaaaf

#10000
1aaaaf

#15000
0aaaaf

#20000
1aaaaf

#25000
0aaaaf

#30000
1aaaaf

#35000
0aaaaf

#40000
1aaaaf
b1 aaaag

#45000
0aaaaf

#50000
b1 aaaab
1aaaaf

#55000
0aaaaf

#60000
1aaaaf

#65000
0aaaaf

#70000
1aaaaf
b10 aaaag

#75000
0aaaaf

#80000
b10 aaaab
1aaaaf

#85000
0aaaaf

#90000
1aaaaf

#95000
0aaaaf

#100000
1aaaaf
b11 aaaag

#105000
0aaaaf

#110000
b11 aaaab
1aaaaf

#115000
0aaaaf

#120000
1aaaaf

#125000
0aaaaf

#130000
1aaaaf
b100 aaaag

#135000
0aaaaf

#140000
b100 aaaab
1aaaaf

#145000
0aaaaf

#150000
1aaaaf

#155000
0aaaaf

#160000
1aaaaf
b101 aaaag

#165000
0aaaaf

#170000
b101 aaaab
1aaaaf

#175000
0aaaaf

#180000
1aaaaf

#185000
0aaaaf

#190000
1aaaaf
b110 aaaag

#195000
0aaaaf

#200000
b110 aaaab
1aaaaf

#205000
0aaaaf

#210000
1aaaaf

#215000
0aaaaf

#220000
1aaaaf
b111 aaaag

#225000
0aaaaf

#230000
b111 aaaab
1aaaaf

#235000
0aaaaf

#240000
1aaaaf

#245000
0aaaaf

#250000
1aaaaf
b1000 aaaag

#255000
0aaaaf

#260000
b1000 aaaab
1aaaaf

#265000
0aaaaf

#270000
1aaaaf

#275000
0aaaaf

#280000
1aaaaf
b1001 aaaag

#285000
0aaaaf

#290000
b1001 aaaab
1aaaaf

#295000
0aaaaf

#300000
1aaaaf

#305000
0aaaaf

#310000
1aaaaf
b1010 aaaag

#315000
0aaaaf

#320000
b1010 aaaab
1aaaaf

#325000
0aaaaf

#330000
1aaaaf

#335000
0aaaaf

#340000
1aaaaf
b1011 aaaag

#345000
0aaaaf

#350000
b1011 aaaab
1aaaaf

#355000
0aaaaf

#360000
1aaaaf

#365000
0aaaaf

#370000
1aaaaf
b1100 aaaag

#375000
0aaaaf

#380000
b1100 aaaab
1aaaaf

#385000
0aaaaf

#390000
1aaaaf

#395000
0aaaaf

#400000
1aaaaf
b1101 aaaag

#405000
0aaaaf

#410000
b1101 aaaab
1aaaaf

#415000
0aaaaf

#420000
1aaaaf

#425000
0aaaaf

#430000
1aaaaf
b1110 aaaag

#435000
0aaaaf

#440000
b1110 aaaab
1aaaaf

#445000
0aaaaf

#450000
1aaaaf

#455000
0aaaaf

#460000
1aaaaf
b1111 aaaag

#465000
0aaaaf

#470000
b1111 aaaab
1aaaaf

#475000
0aaaaf

#480000
1aaaaf

#485000
0aaaaf

#490000
1aaaaf
b10000 aaaag

#495000
0aaaaf

#500000
b10000 aaaab
1aaaaf

#505000
0aaaaf

#510000
1aaaaf

#515000
0aaaaf

#520000
1aaaaf
b10001 aaaag

#525000
0aaaaf

#530000
b10001 aaaab
1aaaaf

#535000
0aaaaf

#540000
1aaaaf

#545000
0aaaaf

#550000
1aaaaf
b10010 aaaag

#555000
0aaaaf

#560000
b10010 aaaab
1aaaaf

#565000
0aaaaf

#570000
1aaaaf

#575000
0aaaaf

#580000
1aaaaf
b10011 aaaag

#585000
0aaaaf

#590000
b10011 aaaab
1aaaaf

#595000
0aaaaf

#600000
1aaaaf

#605000
0aaaaf

#610000
1aaaaf
b10100 aaaag

#615000
0aaaaf

#620000
b10100 aaaab
1aaaaf

#625000
0aaaaf

#630000
1aaaaf

#635000
0aaaaf

#640000
1aaaaf
b10101 aaaag

#645000
0aaaaf

#650000
b10101 aaaab
1aaaaf

#655000
0aaaaf

#660000
1aaaaf

#665000
0aaaaf

#670000
1aaaaf
b10110 aaaag

#675000
0aaaaf

#680000
b10110 aaaab
1aaaaf

#685000
0aaaaf

#690000
1aaaaf

#695000
0aaaaf

#700000
1aaaaf
b10111 aaaag

#705000
0aaaaf

#710000
b10111 aaaab
1aaaaf

#715000
0aaaaf

#720000
1aaaaf

#725000
0aaaaf

#730000
1aaaaf
b11000 aaaag

#735000
0aaaaf

#740000
b11000 aaaab
1aaaaf

#745000
0aaaaf

#750000
1aaaaf

#755000
0aaaaf

#760000
1aaaaf
b11001 aaaag

#765000
0aaaaf

#770000
b11001 aaaab
1aaaaf

#775000
0aaaaf

#780000
1aaaaf

#785000
0aaaaf

#790000
1aaaaf
b11010 aaaag

#795000
0aaaaf

#800000
b11010 aaaab
1aaaaf

#805000
0aaaaf

#810000
1aaaaf

#815000
0aaaaf

#820000
1aaaaf
b11011 aaaag

#825000
0aaaaf

#830000
b11011 aaaab
1aaaaf

#835000
0aaaaf

#840000
1aaaaf

#845000
0aaaaf

#850000
1aaaaf
b11100 aaaag

#855000
0aaaaf

#860000
b11100 aaaab
1aaaaf

#865000
0aaaaf

#870000
1aaaaf

#875000
0aaaaf

#880000
1aaaaf
b11101 aaaag

#885000
0aaaaf

#890000
b11101 aaaab
1aaaaf

#895000
0aaaaf

#900000
1aaaaf

#905000
0aaaaf

#910000
1aaaaf
b11110 aaaag

#915000
0aaaaf

#920000
b11110 aaaab
1aaaaf

#925000
0aaaaf

#930000
1aaaaf

#935000
0aaaaf

#940000
1aaaaf
b11111 aaaag

#945000
0aaaaf

#950000
b11111 aaaab
1aaaaf

#955000
0aaaaf

#960000
1aaaaf

#965000
0aaaaf

#970000
b11 aaaaa
1aaaad
1aaaaf
b0 aaaag

#975000
0aaaaf

#980000
1aaaaf

#985000
0aaaaf

#990000
0aaaad
1aaaaf

#995000
0aaaaf

#1000000
b0 aaaab
1aaaaf

#1005000
0aaaaf

#1010000
b11 aaaab
1aaaaf

#1015000
0aaaaf

#1020000
b0 aaaaa
1aaaaf

#1025000
0aaaaf

#1030000
1aaaaf

#1035000
0aaaaf

#1040000
1aaaaf

#1045000
0aaaaf

#1050000
1aaaad
1aaaae
1aaaaf

#1055000
0aaaaf

#1060000
1aaaaf

#1065000
0aaaaf

#1070000
0aaaad
1aaaaf

#1075000
0aaaaf

#1080000
1aaaaf

#1085000
0aaaaf

#1090000
b0 aaaab
1aaaaf

#1095000
0aaaaf

#1100000
b11 aaaaa
1aaaad
0aaaae
1aaaaf

#1105000
0aaaaf

#1110000
1aaaaf

#1115000
0aaaaf

#1120000
0aaaad
1aaaaf

#1125000
0aaaaf

#1130000
1aaaaf

#1135000
0aaaaf

#1140000
b11 aaaab
1aaaaf

#1145000
0aaaaf

#1150000
b11111111111111111111111111111111 aaaaa
1aaaad
1aaaaf
b11111 aaaag

#1155000
0aaaaf

#1160000
1aaaaf

#1165000
0aaaaf

#1170000
0aaaad
1aaaaf

#1175000
0aaaaf

#1180000
b0 aaaab
1aaaaf

#1185000
0aaaaf

#1190000
b11111111111111111111111111111111 aaaab
1aaaaf

#1195000
0aaaaf

#1200000
1aaaaf
b0 aaaag

#1205000
0aaaaf

#1210000
b11 aaaab
1aaaaf

