dff/wave.vcd
$date
     Feb 24, 2015       09:40:23
$end

$version
 SystemC 2.3.1-Accellera --- Jan 13 2015 09:29:45
$end

$timescale
     1 ps
$end

$scope module SystemC $end
$var wire    1  aaaaa  din       $end
$var wire    1  aaaab  dout       $end
$var wire    1  aaaac  enable       $end
$var wire    1  aaaad  rw       $end
$var wire    1  aaaae  clr       $end
$var wire    1  aaaaf  clk       $end
$upscope $end
$enddefinitions  $end

$comment
All initial values are dumped below at time 0 sec = 0 timescale units.
$end

$dumpvars
1aaaaa
0aaaab
1aaaac
1aaaad
0aaaae
1aaaaf
$end

#5000
0aaaaf

#10000
1aaaaf

#15000
0aaaaf

#20000
1aaaaf

#25000
0aaaaf

#30000
0aaaad
1aaaaf

#35000
0aaaaf

#40000
1aaaab
1aaaaf

#45000
0aaaaf

#50000
0aaaaa
1aaaad
1aaaaf

#55000
0aaaaf

#60000
1aaaaf

#65000
0aaaaf

#70000
0aaaad
1aaaaf

#75000
0aaaaf

#80000
0aaaab
1aaaaf

#85000
0aaaaf

#90000
1aaaaa
1aaaad
1aaaaf

#95000
0aaaaf

#100000
1aaaaf

#105000
0aaaaf

#110000
0aaaad
1aaaaf

#115000
0aaaaf

#120000
1aaaab
1aaaaf

#125000
0aaaaf

#130000
0aaaaa
1aaaaf

#135000
0aaaaf

#140000
1aaaaf

#145000
0aaaaf

#150000
1aaaad
1aaaae
1aaaaf

#155000
0aaaaf

#160000
1aaaaf

#165000
0aaaaf

#170000
0aaaad
1aaaaf

#175000
0aaaaf

#180000
0aaaab
1aaaaf

#185000
0aaaaf

#190000
0aaaae
1aaaaf

