multiplier/wave.vcd
$date
     Feb 17, 2015       10:49:26
$end

$version
 SystemC 2.3.1-Accellera --- Jan 13 2015 09:29:45
$end

$timescale
     1 ps
$end

$scope module SystemC $end
$var wire    1  aaaaa  clk       $end
$var wire    8  aaaab  A [7:0]  $end
$var wire    8  aaaac  B [7:0]  $end
$var wire   16  aaaad  C [15:0]  $end
$var wire    8  aaaae  RA [7:0]  $end
$var wire    8  aaaaf  RB [7:0]  $end
$var wire   16  aaaag  RC [15:0]  $end
$var wire    1  aaaah  Ready       $end
$var wire    1  aaaai  Start       $end
$upscope $end
$enddefinitions  $end

$comment
All initial values are dumped below at time 0 sec = 0 timescale units.
$end

$dumpvars
1aaaaa
b0 aaaab
b0 aaaac
b0 aaaad
b0 aaaae
b0 aaaaf
b0 aaaag
0aaaah
0aaaai
$end

#5000
0aaaaa

#10000
1aaaaa
1aaaah

#15000
0aaaaa

#20000
1aaaaa
b110 aaaab
b111 aaaac
1aaaai

#25000
0aaaaa

#30000
1aaaaa
b110 aaaae
b111 aaaaf
0aaaah

#35000
0aaaaa

#40000
1aaaaa
b11 aaaae
b1110 aaaaf
0aaaai

#45000
0aaaaa

#50000
1aaaaa
b1 aaaae
b11100 aaaaf
b1110 aaaag

#55000
0aaaaa

#60000
1aaaaa
b0 aaaae
b111000 aaaaf
b101010 aaaag

#65000
0aaaaa

#70000
1aaaaa
b101010 aaaad
1aaaah

#75000
0aaaaa

#80000
1aaaaa
b1011 aaaab
b0 aaaac
1aaaai

#85000
0aaaaa

#90000
1aaaaa
b1011 aaaae
b0 aaaaf
b0 aaaag
0aaaah

#95000
0aaaaa

#100000
1aaaaa
b101 aaaae
0aaaai

#105000
0aaaaa

#110000
1aaaaa
b10 aaaae

#115000
0aaaaa

#120000
1aaaaa
b1 aaaae

#125000
0aaaaa

#130000
1aaaaa
b0 aaaae

#135000
0aaaaa

#140000
1aaaaa
b0 aaaad
1aaaah

